{
    "name": "InputActions",
    "maps": [
        {
            "name": "Touch",
            "id": "882fe978-cb80-4c72-af6a-4938092a19ed",
            "actions": [
                {
                    "name": "Drag",
                    "type": "Value",
                    "id": "55021c39-a209-4928-84d2-bfd8829b2f13",
                    "expectedControlType": "Vector2",
                    "processors": "",
                    "interactions": "",
                    "initialStateCheck": true
                },
                {
                    "name": "Tap",
                    "type": "Button",
                    "id": "b269f9ea-efd4-41bd-acf8-6c3063212ca3",
                    "expectedControlType": "Button",
                    "processors": "",
                    "interactions": "",
                    "initialStateCheck": false
                }
            ],
            "bindings": [
                {
                    "name": "",
                    "id": "dd21377e-2332-43b2-ace8-a669060d5a1c",
                    "path": "<Touchscreen>/primaryTouch/position",
                    "interactions": "",
                    "processors": "",
                    "groups": "",
                    "action": "Drag",
                    "isComposite": false,
                    "isPartOfComposite": false
                },
                {
                    "name": "",
                    "id": "b173f607-9b50-4036-b493-3d53c54d2b5e",
                    "path": "<Touchscreen>/primaryTouch/tap",
                    "interactions": "",
                    "processors": "",
                    "groups": "",
                    "action": "Tap",
                    "isComposite": false,
                    "isPartOfComposite": false
                }
            ]
        }
    ],
    "controlSchemes": []
}